/ignoreAccessChecks
/metadataFile "W:\Projects\AlphaChallenge\Astro\windows\Astro\Astro\obj\ARM\Release\ilc\intermediate\ILTransformed\Astro.metadata"
/gvmAssemblyName "Astro.McgInterop"
/o
/sharedGenerics
/ilmergeinfo "W:\Projects\AlphaChallenge\Astro\windows\Astro\Astro\obj\ARM\Release\ilc\intermediate\ILTransformed\Astro.csv"
/buildExpandedTocFiles
/multiFile
/sharedGenericsMode StandardUniversalGenericsHeuristics
/in "W:\Projects\AlphaChallenge\Astro\windows\Astro\Astro\obj\ARM\Release\ilc\intermediate\ILTransformed\Astro.ilexe"
/in "W:\Projects\AlphaChallenge\Astro\windows\Astro\Astro\obj\ARM\Release\ilc\intermediate\ILTransformed\Astro.McgInterop.ildll"
/in "W:\Projects\AlphaChallenge\Astro\windows\Astro\Astro\obj\ARM\Release\ilc\intermediate\ILTransformed\Microsoft.CSharp.ildll"
/in "W:\Projects\AlphaChallenge\Astro\windows\Astro\Astro\obj\ARM\Release\ilc\intermediate\ILTransformed\System.AppContext.ildll"
/in "W:\Projects\AlphaChallenge\Astro\windows\Astro\Astro\obj\ARM\Release\ilc\intermediate\ILTransformed\System.Collections.NonGeneric.ildll"
/in "W:\Projects\AlphaChallenge\Astro\windows\Astro\Astro\obj\ARM\Release\ilc\intermediate\ILTransformed\System.ComponentModel.ildll"
/in "W:\Projects\AlphaChallenge\Astro\windows\Astro\Astro\obj\ARM\Release\ilc\intermediate\ILTransformed\System.Data.Common.ildll"
/in "W:\Projects\AlphaChallenge\Astro\windows\Astro\Astro\obj\ARM\Release\ilc\intermediate\ILTransformed\System.Diagnostics.Contracts.ildll"
/in "W:\Projects\AlphaChallenge\Astro\windows\Astro\Astro\obj\ARM\Release\ilc\intermediate\ILTransformed\System.Diagnostics.Debug.ildll"
/in "W:\Projects\AlphaChallenge\Astro\windows\Astro\Astro\obj\ARM\Release\ilc\intermediate\ILTransformed\System.Diagnostics.StackTrace.ildll"
/in "W:\Projects\AlphaChallenge\Astro\windows\Astro\Astro\obj\ARM\Release\ilc\intermediate\ILTransformed\System.Diagnostics.Tools.ildll"
/in "W:\Projects\AlphaChallenge\Astro\windows\Astro\Astro\obj\ARM\Release\ilc\intermediate\ILTransformed\System.Globalization.Calendars.ildll"
/in "W:\Projects\AlphaChallenge\Astro\windows\Astro\Astro\obj\ARM\Release\ilc\intermediate\ILTransformed\System.Globalization.Extensions.ildll"
/in "W:\Projects\AlphaChallenge\Astro\windows\Astro\Astro\obj\ARM\Release\ilc\intermediate\ILTransformed\System.Globalization.ildll"
/in "W:\Projects\AlphaChallenge\Astro\windows\Astro\Astro\obj\ARM\Release\ilc\intermediate\ILTransformed\System.IO.FileSystem.ildll"
/in "W:\Projects\AlphaChallenge\Astro\windows\Astro\Astro\obj\ARM\Release\ilc\intermediate\ILTransformed\System.IO.FileSystem.Primitives.ildll"
/in "W:\Projects\AlphaChallenge\Astro\windows\Astro\Astro\obj\ARM\Release\ilc\intermediate\ILTransformed\System.IO.IsolatedStorage.ildll"
/in "W:\Projects\AlphaChallenge\Astro\windows\Astro\Astro\obj\ARM\Release\ilc\intermediate\ILTransformed\System.IO.UnmanagedMemoryStream.ildll"
/in "W:\Projects\AlphaChallenge\Astro\windows\Astro\Astro\obj\ARM\Release\ilc\intermediate\ILTransformed\System.Numerics.Vectors.ildll"
/in "W:\Projects\AlphaChallenge\Astro\windows\Astro\Astro\obj\ARM\Release\ilc\intermediate\ILTransformed\System.Private.DeveloperExperience.AppX.ildll"
/in "W:\Projects\AlphaChallenge\Astro\windows\Astro\Astro\obj\ARM\Release\ilc\intermediate\ILTransformed\System.Private.PortableThunks.ildll"
/in "W:\Projects\AlphaChallenge\Astro\windows\Astro\Astro\obj\ARM\Release\ilc\intermediate\ILTransformed\System.Private.StackTraceGenerator.ildll"
/in "W:\Projects\AlphaChallenge\Astro\windows\Astro\Astro\obj\ARM\Release\ilc\intermediate\ILTransformed\System.Private.WinRTInterop.CoreLib.ildll"
/in "W:\Projects\AlphaChallenge\Astro\windows\Astro\Astro\obj\ARM\Release\ilc\intermediate\ILTransformed\System.Reflection.DispatchProxy.ildll"
/in "W:\Projects\AlphaChallenge\Astro\windows\Astro\Astro\obj\ARM\Release\ilc\intermediate\ILTransformed\System.Runtime.Handles.ildll"
/in "W:\Projects\AlphaChallenge\Astro\windows\Astro\Astro\obj\ARM\Release\ilc\intermediate\ILTransformed\System.Runtime.ildll"
/in "W:\Projects\AlphaChallenge\Astro\windows\Astro\Astro\obj\ARM\Release\ilc\intermediate\ILTransformed\System.Runtime.InteropServices.WindowsRuntime.ildll"
/in "W:\Projects\AlphaChallenge\Astro\windows\Astro\Astro\obj\ARM\Release\ilc\intermediate\ILTransformed\System.Runtime.Numerics.ildll"
/in "W:\Projects\AlphaChallenge\Astro\windows\Astro\Astro\obj\ARM\Release\ilc\intermediate\ILTransformed\System.Runtime.Serialization.Primitives.ildll"
/in "W:\Projects\AlphaChallenge\Astro\windows\Astro\Astro\obj\ARM\Release\ilc\intermediate\ILTransformed\System.Runtime.WindowsRuntime.ildll"
/in "W:\Projects\AlphaChallenge\Astro\windows\Astro\Astro\obj\ARM\Release\ilc\intermediate\ILTransformed\System.Runtime.WindowsRuntime.UI.Xaml.ildll"
/in "W:\Projects\AlphaChallenge\Astro\windows\Astro\Astro\obj\ARM\Release\ilc\intermediate\ILTransformed\System.Security.Claims.ildll"
/in "W:\Projects\AlphaChallenge\Astro\windows\Astro\Astro\obj\ARM\Release\ilc\intermediate\ILTransformed\System.Security.Cryptography.Algorithms.ildll"
/in "W:\Projects\AlphaChallenge\Astro\windows\Astro\Astro\obj\ARM\Release\ilc\intermediate\ILTransformed\System.Security.Cryptography.Cng.ildll"
/in "W:\Projects\AlphaChallenge\Astro\windows\Astro\Astro\obj\ARM\Release\ilc\intermediate\ILTransformed\System.Security.Cryptography.Encoding.ildll"
/in "W:\Projects\AlphaChallenge\Astro\windows\Astro\Astro\obj\ARM\Release\ilc\intermediate\ILTransformed\System.Security.Cryptography.Primitives.ildll"
/in "W:\Projects\AlphaChallenge\Astro\windows\Astro\Astro\obj\ARM\Release\ilc\intermediate\ILTransformed\System.Security.Cryptography.X509Certificates.ildll"
/in "W:\Projects\AlphaChallenge\Astro\windows\Astro\Astro\obj\ARM\Release\ilc\intermediate\ILTransformed\System.Security.Principal.ildll"
/in "W:\Projects\AlphaChallenge\Astro\windows\Astro\Astro\obj\ARM\Release\ilc\intermediate\ILTransformed\System.Text.Encoding.CodePages.ildll"
/in "W:\Projects\AlphaChallenge\Astro\windows\Astro\Astro\obj\ARM\Release\ilc\intermediate\ILTransformed\System.Text.Encoding.Extensions.ildll"
/in "W:\Projects\AlphaChallenge\Astro\windows\Astro\Astro\obj\ARM\Release\ilc\intermediate\ILTransformed\System.Text.Encoding.ildll"
/in "W:\Projects\AlphaChallenge\Astro\windows\Astro\Astro\obj\ARM\Release\ilc\intermediate\ILTransformed\System.Threading.ildll"
/in "W:\Projects\AlphaChallenge\Astro\windows\Astro\Astro\obj\ARM\Release\ilc\intermediate\ILTransformed\System.Threading.Overlapped.ildll"
/in "W:\Projects\AlphaChallenge\Astro\windows\Astro\Astro\obj\ARM\Release\ilc\intermediate\ILTransformed\System.Threading.Tasks.ildll"
/in "W:\Projects\AlphaChallenge\Astro\windows\Astro\Astro\obj\ARM\Release\ilc\intermediate\ILTransformed\System.Threading.Tasks.Parallel.ildll"
/in "W:\Projects\AlphaChallenge\Astro\windows\Astro\Astro\obj\ARM\Release\ilc\intermediate\ILTransformed\Telerik.Core.ildll"
/in "W:\Projects\AlphaChallenge\Astro\windows\Astro\Astro\obj\ARM\Release\ilc\intermediate\ILTransformed\Telerik.Data.ildll"
/in "W:\Projects\AlphaChallenge\Astro\windows\Astro\Astro\obj\ARM\Release\ilc\intermediate\ILTransformed\Telerik.UI.Xaml.Chart.UWP.ildll"
/in "W:\Projects\AlphaChallenge\Astro\windows\Astro\Astro\obj\ARM\Release\ilc\intermediate\ILTransformed\Telerik.UI.Xaml.Controls.Data.UWP.ildll"
/in "W:\Projects\AlphaChallenge\Astro\windows\Astro\Astro\obj\ARM\Release\ilc\intermediate\ILTransformed\Telerik.UI.Xaml.DataVisualization.UWP.ildll"
/in "W:\Projects\AlphaChallenge\Astro\windows\Astro\Astro\obj\ARM\Release\ilc\intermediate\ILTransformed\Telerik.UI.Xaml.Grid.UWP.ildll"
/in "W:\Projects\AlphaChallenge\Astro\windows\Astro\Astro\obj\ARM\Release\ilc\intermediate\ILTransformed\Telerik.UI.Xaml.Input.UWP.ildll"
/in "W:\Projects\AlphaChallenge\Astro\windows\Astro\Astro\obj\ARM\Release\ilc\intermediate\ILTransformed\Telerik.UI.Xaml.Primitives.UWP.ildll"
/out "W:\Projects\AlphaChallenge\Astro\windows\Astro\Astro\obj\ARM\Release\ilc\intermediate\MDIL\Astro.mdilexe"
/iltoc "C:\Program Files (x86)\Microsoft SDKs\Windows Kits\10\ExtensionSDKs\Microsoft.NET.Native.Framework.1.3\1.3\ARM\ret\ILToc\System.Collections.iltoc*SharedLibrary"
/iltoc "C:\Program Files (x86)\Microsoft SDKs\Windows Kits\10\ExtensionSDKs\Microsoft.NET.Native.Framework.1.3\1.3\ARM\ret\ILToc\System.Collections.Concurrent.iltoc*SharedLibrary"
/iltoc "C:\Program Files (x86)\Microsoft SDKs\Windows Kits\10\ExtensionSDKs\Microsoft.NET.Native.Framework.1.3\1.3\ARM\ret\ILToc\System.Diagnostics.Tracing.iltoc*SharedLibrary"
/iltoc "C:\Program Files (x86)\Microsoft SDKs\Windows Kits\10\ExtensionSDKs\Microsoft.NET.Native.Framework.1.3\1.3\ARM\ret\ILToc\System.Dynamic.Runtime.iltoc*SharedLibrary"
/iltoc "C:\Program Files (x86)\Microsoft SDKs\Windows Kits\10\ExtensionSDKs\Microsoft.NET.Native.Framework.1.3\1.3\ARM\ret\ILToc\System.IO.iltoc*SharedLibrary"
/iltoc "C:\Program Files (x86)\Microsoft SDKs\Windows Kits\10\ExtensionSDKs\Microsoft.NET.Native.Framework.1.3\1.3\ARM\ret\ILToc\System.Linq.iltoc*SharedLibrary"
/iltoc "C:\Program Files (x86)\Microsoft SDKs\Windows Kits\10\ExtensionSDKs\Microsoft.NET.Native.Framework.1.3\1.3\ARM\ret\ILToc\System.Linq.Expressions.iltoc*SharedLibrary"
/iltoc "C:\Program Files (x86)\Microsoft SDKs\Windows Kits\10\ExtensionSDKs\Microsoft.NET.Native.Framework.1.3\1.3\ARM\ret\ILToc\System.ObjectModel.iltoc*SharedLibrary"
/iltoc "C:\Program Files (x86)\Microsoft SDKs\Windows Kits\10\ExtensionSDKs\Microsoft.NET.Native.Framework.1.3\1.3\ARM\ret\ILToc\System.Private.CoreLib.iltoc*SharedLibrary"
/iltoc "C:\Program Files (x86)\Microsoft SDKs\Windows Kits\10\ExtensionSDKs\Microsoft.NET.Native.Framework.1.3\1.3\ARM\ret\ILToc\System.Private.Interop.iltoc*SharedLibrary"
/iltoc "C:\Program Files (x86)\Microsoft SDKs\Windows Kits\10\ExtensionSDKs\Microsoft.NET.Native.Framework.1.3\1.3\ARM\ret\ILToc\System.Private.Reflection.iltoc*SharedLibrary"
/iltoc "C:\Program Files (x86)\Microsoft SDKs\Windows Kits\10\ExtensionSDKs\Microsoft.NET.Native.Framework.1.3\1.3\ARM\ret\ILToc\System.Private.Reflection.Core.iltoc*SharedLibrary"
/iltoc "C:\Program Files (x86)\Microsoft SDKs\Windows Kits\10\ExtensionSDKs\Microsoft.NET.Native.Framework.1.3\1.3\ARM\ret\ILToc\System.Private.Reflection.Execution.iltoc*SharedLibrary"
/iltoc "C:\Program Files (x86)\Microsoft SDKs\Windows Kits\10\ExtensionSDKs\Microsoft.NET.Native.Framework.1.3\1.3\ARM\ret\ILToc\System.Private.Reflection.Metadata.iltoc*SharedLibrary"
/iltoc "C:\Program Files (x86)\Microsoft SDKs\Windows Kits\10\ExtensionSDKs\Microsoft.NET.Native.Framework.1.3\1.3\ARM\ret\ILToc\System.Private.Threading.iltoc*SharedLibrary"
/iltoc "C:\Program Files (x86)\Microsoft SDKs\Windows Kits\10\ExtensionSDKs\Microsoft.NET.Native.Framework.1.3\1.3\ARM\ret\ILToc\System.Private.TypeLoader.iltoc*SharedLibrary"
/iltoc "C:\Program Files (x86)\Microsoft SDKs\Windows Kits\10\ExtensionSDKs\Microsoft.NET.Native.Framework.1.3\1.3\ARM\ret\ILToc\System.Private.Uri.iltoc*SharedLibrary"
/iltoc "C:\Program Files (x86)\Microsoft SDKs\Windows Kits\10\ExtensionSDKs\Microsoft.NET.Native.Framework.1.3\1.3\ARM\ret\ILToc\System.Reflection.Extensions.iltoc*SharedLibrary"
/iltoc "C:\Program Files (x86)\Microsoft SDKs\Windows Kits\10\ExtensionSDKs\Microsoft.NET.Native.Framework.1.3\1.3\ARM\ret\ILToc\System.Reflection.Primitives.iltoc*SharedLibrary"
/iltoc "C:\Program Files (x86)\Microsoft SDKs\Windows Kits\10\ExtensionSDKs\Microsoft.NET.Native.Framework.1.3\1.3\ARM\ret\ILToc\System.Reflection.TypeExtensions.iltoc*SharedLibrary"
/iltoc "C:\Program Files (x86)\Microsoft SDKs\Windows Kits\10\ExtensionSDKs\Microsoft.NET.Native.Framework.1.3\1.3\ARM\ret\ILToc\System.Resources.ResourceManager.iltoc*SharedLibrary"
/iltoc "C:\Program Files (x86)\Microsoft SDKs\Windows Kits\10\ExtensionSDKs\Microsoft.NET.Native.Framework.1.3\1.3\ARM\ret\ILToc\System.Runtime.Extensions.iltoc*SharedLibrary"
/iltoc "C:\Program Files (x86)\Microsoft SDKs\Windows Kits\10\ExtensionSDKs\Microsoft.NET.Native.Framework.1.3\1.3\ARM\ret\ILToc\System.Runtime.Implementation.iltoc*SharedLibrary"
/iltoc "C:\Program Files (x86)\Microsoft SDKs\Windows Kits\10\ExtensionSDKs\Microsoft.NET.Native.Framework.1.3\1.3\ARM\ret\ILToc\System.Text.RegularExpressions.iltoc*SharedLibrary"
/iltoc "C:\Program Files (x86)\Microsoft SDKs\Windows Kits\10\ExtensionSDKs\Microsoft.NET.Native.Framework.1.3\1.3\ARM\ret\ILToc\System.Private.SharedLibrary.Interop.Generated.iltoc*SharedLibrary"
/toc "C:\Program Files (x86)\Microsoft SDKs\Windows Kits\10\ExtensionSDKs\Microsoft.NET.Native.Framework.1.3\1.3\ARM\ret\Toc\System.Collections.toc"
/toc "C:\Program Files (x86)\Microsoft SDKs\Windows Kits\10\ExtensionSDKs\Microsoft.NET.Native.Framework.1.3\1.3\ARM\ret\Toc\System.Collections.Concurrent.toc"
/toc "C:\Program Files (x86)\Microsoft SDKs\Windows Kits\10\ExtensionSDKs\Microsoft.NET.Native.Framework.1.3\1.3\ARM\ret\Toc\System.Diagnostics.Tracing.toc"
/toc "C:\Program Files (x86)\Microsoft SDKs\Windows Kits\10\ExtensionSDKs\Microsoft.NET.Native.Framework.1.3\1.3\ARM\ret\Toc\System.Dynamic.Runtime.toc"
/toc "C:\Program Files (x86)\Microsoft SDKs\Windows Kits\10\ExtensionSDKs\Microsoft.NET.Native.Framework.1.3\1.3\ARM\ret\Toc\System.IO.toc"
/toc "C:\Program Files (x86)\Microsoft SDKs\Windows Kits\10\ExtensionSDKs\Microsoft.NET.Native.Framework.1.3\1.3\ARM\ret\Toc\System.Linq.toc"
/toc "C:\Program Files (x86)\Microsoft SDKs\Windows Kits\10\ExtensionSDKs\Microsoft.NET.Native.Framework.1.3\1.3\ARM\ret\Toc\System.Linq.Expressions.toc"
/toc "C:\Program Files (x86)\Microsoft SDKs\Windows Kits\10\ExtensionSDKs\Microsoft.NET.Native.Framework.1.3\1.3\ARM\ret\Toc\System.ObjectModel.toc"
/toc "C:\Program Files (x86)\Microsoft SDKs\Windows Kits\10\ExtensionSDKs\Microsoft.NET.Native.Framework.1.3\1.3\ARM\ret\Toc\System.Private.CoreLib.toc"
/toc "C:\Program Files (x86)\Microsoft SDKs\Windows Kits\10\ExtensionSDKs\Microsoft.NET.Native.Framework.1.3\1.3\ARM\ret\Toc\System.Private.Interop.toc"
/toc "C:\Program Files (x86)\Microsoft SDKs\Windows Kits\10\ExtensionSDKs\Microsoft.NET.Native.Framework.1.3\1.3\ARM\ret\Toc\System.Private.Reflection.toc"
/toc "C:\Program Files (x86)\Microsoft SDKs\Windows Kits\10\ExtensionSDKs\Microsoft.NET.Native.Framework.1.3\1.3\ARM\ret\Toc\System.Private.Reflection.Core.toc"
/toc "C:\Program Files (x86)\Microsoft SDKs\Windows Kits\10\ExtensionSDKs\Microsoft.NET.Native.Framework.1.3\1.3\ARM\ret\Toc\System.Private.Reflection.Execution.toc"
/toc "C:\Program Files (x86)\Microsoft SDKs\Windows Kits\10\ExtensionSDKs\Microsoft.NET.Native.Framework.1.3\1.3\ARM\ret\Toc\System.Private.Reflection.Metadata.toc"
/toc "C:\Program Files (x86)\Microsoft SDKs\Windows Kits\10\ExtensionSDKs\Microsoft.NET.Native.Framework.1.3\1.3\ARM\ret\Toc\System.Private.Threading.toc"
/toc "C:\Program Files (x86)\Microsoft SDKs\Windows Kits\10\ExtensionSDKs\Microsoft.NET.Native.Framework.1.3\1.3\ARM\ret\Toc\System.Private.TypeLoader.toc"
/toc "C:\Program Files (x86)\Microsoft SDKs\Windows Kits\10\ExtensionSDKs\Microsoft.NET.Native.Framework.1.3\1.3\ARM\ret\Toc\System.Private.Uri.toc"
/toc "C:\Program Files (x86)\Microsoft SDKs\Windows Kits\10\ExtensionSDKs\Microsoft.NET.Native.Framework.1.3\1.3\ARM\ret\Toc\System.Reflection.Extensions.toc"
/toc "C:\Program Files (x86)\Microsoft SDKs\Windows Kits\10\ExtensionSDKs\Microsoft.NET.Native.Framework.1.3\1.3\ARM\ret\Toc\System.Reflection.Primitives.toc"
/toc "C:\Program Files (x86)\Microsoft SDKs\Windows Kits\10\ExtensionSDKs\Microsoft.NET.Native.Framework.1.3\1.3\ARM\ret\Toc\System.Reflection.TypeExtensions.toc"
/toc "C:\Program Files (x86)\Microsoft SDKs\Windows Kits\10\ExtensionSDKs\Microsoft.NET.Native.Framework.1.3\1.3\ARM\ret\Toc\System.Resources.ResourceManager.toc"
/toc "C:\Program Files (x86)\Microsoft SDKs\Windows Kits\10\ExtensionSDKs\Microsoft.NET.Native.Framework.1.3\1.3\ARM\ret\Toc\System.Runtime.Extensions.toc"
/toc "C:\Program Files (x86)\Microsoft SDKs\Windows Kits\10\ExtensionSDKs\Microsoft.NET.Native.Framework.1.3\1.3\ARM\ret\Toc\System.Runtime.Implementation.toc"
/toc "C:\Program Files (x86)\Microsoft SDKs\Windows Kits\10\ExtensionSDKs\Microsoft.NET.Native.Framework.1.3\1.3\ARM\ret\Toc\System.Text.RegularExpressions.toc"
/toc "C:\Program Files (x86)\Microsoft SDKs\Windows Kits\10\ExtensionSDKs\Microsoft.NET.Native.Framework.1.3\1.3\ARM\ret\Toc\System.Private.SharedLibrary.Interop.Generated.toc"
